Campaign	Campaign Daily Budget	Ad Group	Max CPC	Headline	Description Line 1	Description Line 2	Display URL	Final URL	Keyword	Criterion Type	First page bid	Top of page bid	Campaign Status	Ad Group Status	Status
[Challenge] Basketball Shoes - Category	50												Paused
		Nike nk123 - $130	1.56										Paused	Active
				Nike nk123 - $130	You should buy our shoes	we have the best Basketball Shoes	www.shoes.roirevolution.com/nk123	http://www.shoes.roirevolution.com/nike/nk123					Paused	Active	Active
				Nike nk123	only $130	and you would be cooler	www.shoes.roirevolution.com/nk123	http://www.shoes.roirevolution.com/nike/nk123					Paused	Active	Active
									nike	Phrase	2	0	Paused	Active	Active
									 +nike	Broad	2.25	0	Paused	Active	Active
									nk123	Phrase	2.25	0	Paused	Active	Active
									basketball shoes	Exact	2.25	0	Paused	Active	Active
									nike	Exact	2	0	Paused	Active	Active
									nike basketball shoes	Phrase	2.5	0	Paused	Active	Active
									nike basketball shoes	Exact	2.5	0	Paused	Active	Active
									 +nk123	Broad	2.25	0	Paused	Active	Active
									nike nk123	Exact	2.25	0	Paused	Active	Active
									basketball shoes	Phrase	2.25	0	Paused	Active	Active
									nk123	Exact	2.25	0	Paused	Active	Active
									 +nike +nk123	Broad	2.25	0	Paused	Active	Active
									nike nk123	Phrase	2.25	0	Paused	Active	Active
									 +basketball +shoes	Broad	2.25	0	Paused	Active	Active
									 +nike +basketball +shoes	Broad	2.5	0	Paused	Active	Active
													Paused		Active
[Challenge] Running Shoes - Category	50												Paused
		Nike nk456 - $90	1.08										Paused	Active
				Nike nk456 - $90	You should buy our shoes	we have the best Running Shoes	www.shoes.roirevolution.com/nk456	http://www.shoes.roirevolution.com/nike/nk456					Paused	Active	Active
				Nike nk456 - $90	Running Shoes are so in right now	all the cool kids are buying them	www.shoes.roirevolution.com/nk456	http://www.shoes.roirevolution.com/nike/nk456					Paused	Active	Active
									nike running shoes	Exact	3.25	0	Paused	Active	Active
									 +nike +running +shoes	Broad	3.25	0	Paused	Active	Active
									 +nike +nk456	Broad	2.25	0	Paused	Active	Active
									nike nk456	Exact	2.25	0	Paused	Active	Active
									nike	Exact	2	0	Paused	Active	Active
									running shoes	Exact	2.75	0	Paused	Active	Active
									nike	Phrase	2	0	Paused	Active	Active
									 +nike	Broad	2.25	0	Paused	Active	Active
									 +nk456	Broad	2.25	0	Paused	Active	Active
									running shoes	Phrase	2.75	0	Paused	Active	Active
									nike running shoes	Phrase	3.25	0	Paused	Active	Active
									nk456	Phrase	2.25	0	Paused	Active	Active
									nk456	Exact	2.25	0	Paused	Active	Active
									 +running +shoes	Broad	2.75	0	Paused	Active	Active
									nike nk456	Phrase	2.25	0	Paused	Active	Active
		Nike nk789 - $79	0.95										Paused	Active
				Nike nk789 - $79	Running Shoes are so in right now	all the cool kids are buying them	www.shoes.roirevolution.com/nk789	http://www.shoes.roirevolution.com/nike/nk789					Paused	Active	Active
				Nike nk789 - $79	You should buy our shoes	we have the best Running Shoes	www.shoes.roirevolution.com/nk789	http://www.shoes.roirevolution.com/nike/nk789					Paused	Active	Active
									nike running shoes	Phrase	3.25	0	Paused	Active	Active
									running shoes	Exact	2.75	0	Paused	Active	Active
									nike nk789	Exact	2.25	0	Paused	Active	Active
									running shoes	Phrase	2.75	0	Paused	Active	Active
									nike	Exact	2	0	Paused	Active	Active
									nike running shoes	Exact	3.25	0	Paused	Active	Active
									 +running +shoes	Broad	2.75	0	Paused	Active	Active
									 +nk789	Broad	2.25	0	Paused	Active	Active
									nike	Phrase	2	0	Paused	Active	Active
									 +nike	Broad	2.25	0	Paused	Active	Active
									 +nike +running +shoes	Broad	3.25	0	Paused	Active	Active
									 +nike +nk789	Broad	2.25	0	Paused	Active	Active
									nike nk789	Phrase	2.25	0	Paused	Active	Active
									nk789	Phrase	2.25	0	Paused	Active	Active
									nk789	Exact	2.25	0	Paused	Active	Active
		Adidas ad789 - $100	1.2										Paused	Active
				Adidas ad789 - $100	Running Shoes are so in right now	all the cool kids are buying them	www.shoes.roirevolution.com/ad789	http://www.shoes.roirevolution.com/adidas/ad789					Paused	Active	Active
				Adidas ad789 - $100	You should buy our shoes	we have the best Running Shoes	www.shoes.roirevolution.com/ad789	http://www.shoes.roirevolution.com/adidas/ad789					Paused	Active	Active
									adidas	Exact	2.25	0	Paused	Active	Active
									 +running +shoes	Broad	2.75	0	Paused	Active	Active
									adidas ad789	Phrase	2.75	0	Paused	Active	Active
									 +ad789	Broad	2.25	0	Paused	Active	Active
									running shoes	Exact	2.75	0	Paused	Active	Active
									adidas running shoes	Exact	4.25	0	Paused	Active	Active
									adidas	Phrase	2.25	0	Paused	Active	Active
									adidas ad789	Exact	2.75	0	Paused	Active	Active
									adidas running shoes	Phrase	4.25	0	Paused	Active	Active
									 +adidas +running +shoes	Broad	4.25	0	Paused	Active	Active
									ad789	Phrase	2.25	0	Paused	Active	Active
									running shoes	Phrase	2.75	0	Paused	Active	Active
									 +adidas	Broad	2.5	0	Paused	Active	Active
									ad789	Exact	2.25	0	Paused	Active	Active
									 +adidas +ad789	Broad	2.75	0	Paused	Active	Active
													Paused		Active
[Challenge] Tennis Shoes - Category	50												Paused
		Adidas ad123 - $69	0.83										Paused	Active
				Adidas ad123 - $69	You should buy our shoes	we have the best Tennis Shoes	www.shoes.roirevolution.com/ad123	http://www.shoes.roirevolution.com/adidas/ad123					Paused	Active	Active
				Adidas ad123 - $69	Tennis Shoes are so in right now	all the cool kids are buying them	www.shoes.roirevolution.com/ad123	http://www.shoes.roirevolution.com/adidas/ad123					Paused	Active	Active
									ad123	Phrase	2.25	0	Paused	Active	Active
									 +adidas +ad123	Broad	2.75	0	Paused	Active	Active
									tennis shoes	Exact	2.25	0	Paused	Active	Active
									 +adidas	Broad	2.5	0	Paused	Active	Active
									 +adidas +tennis +shoes	Broad	2.5	0	Paused	Active	Active
									adidas ad123	Phrase	2.75	0	Paused	Active	Active
									adidas	Exact	2.25	0	Paused	Active	Active
									adidas tennis shoes	Exact	2.5	0	Paused	Active	Active
									tennis shoes	Phrase	2.25	0	Paused	Active	Active
									adidas tennis shoes	Phrase	2.5	0	Paused	Active	Active
									 +tennis +shoes	Broad	2.25	0	Paused	Active	Active
									ad123	Exact	2.25	0	Paused	Active	Active
									adidas ad123	Exact	2.75	0	Paused	Active	Active
									adidas	Phrase	2.25	0	Paused	Active	Active
									 +ad123	Broad	2.25	0	Paused	Active	Active
													Paused		Active
[Challenge] Soccer Shoes - Category	50												Paused
		Adidas ad456 - $79	0.95										Paused	Active
				Adidas ad456 - $79	You should buy our shoes	we have the best Soccer Shoes	www.shoes.roirevolution.com/ad456	http://www.shoes.roirevolution.com/adidas/ad456					Paused	Active	Active
				Adidas ad456 - $79	Soccer Shoes are so in right now	all the cool kids are buying them	www.shoes.roirevolution.com/ad456	http://www.shoes.roirevolution.com/adidas/ad456					Paused	Active	Active
									adidas soccer shoes	Phrase	5.25	0	Paused	Active	Active
									soccer shoes	Phrase	3.5	0	Paused	Active	Active
									ad456	Phrase	2.25	0	Paused	Active	Active
									adidas ad456	Phrase	2.75	0	Paused	Active	Active
									adidas	Phrase	2.25	0	Paused	Active	Active
									ad456	Exact	2.25	0	Paused	Active	Active
									 +soccer +shoes	Broad	3.5	0	Paused	Active	Active
									 +adidas +soccer +shoes	Broad	5.25	0	Paused	Active	Active
									adidas ad456	Exact	2.75	0	Paused	Active	Active
									adidas	Exact	2.25	0	Paused	Active	Active
									adidas soccer shoes	Exact	5.25	0	Paused	Active	Active
									 +adidas	Broad	2.5	0	Paused	Active	Active
									soccer shoes	Exact	3.5	0	Paused	Active	Active
									 +ad456	Broad	2.25	0	Paused	Active	Active
									 +adidas +ad456	Broad	2.75	0	Paused	Active	Active
													Paused		Active
[Challenge] Climbing Shoes - Category	50												Paused
		Five TEN ft456 - $130	1.56										Paused	Active
				Five TEN ft456 - $130	Climbing Shoes are so in right now	all the cool kids are buying them	www.shoes.roirevolution.com/ft456	http://www.shoes.roirevolution.com/fiveten/ft456					Paused	Active	Active
				Five TEN ft456 - $130	You should buy our shoes	we have the best Climbing Shoes	www.shoes.roirevolution.com/ft456	http://www.shoes.roirevolution.com/fiveten/ft456					Paused	Active	Active
									five ten	Exact	4.25	0	Paused	Active	Active
									five ten climbing shoes	Phrase	4.25	0	Paused	Active	Active
									 +five +ten +ft456	Broad	3.75	0	Paused	Active	Active
									five ten ft456	Phrase	3.75	0	Paused	Active	Active
									ft456	Phrase	2.25	0	Paused	Active	Active
									five ten	Phrase	4.25	0	Paused	Active	Active
									five ten climbing shoes	Exact	4.25	0	Paused	Active	Active
									 +ft456	Broad	2.25	0	Paused	Active	Active
									 +five +ten +climbing +shoes	Broad	4.25	0	Paused	Active	Active
									 +climbing +shoes	Broad	2.5	0	Paused	Active	Active
									 +five +ten	Broad	4.25	0	Paused	Active	Active
									ft456	Exact	2.25	0	Paused	Active	Active
									five ten ft456	Exact	3.75	0	Paused	Active	Active
									climbing shoes	Exact	2.5	0	Paused	Active	Active
									climbing shoes	Phrase	2.5	0	Paused	Active	Active
		LA Sportiva ls123 - $135	1.62										Paused	Active
				LA Sportiva ls123 - $135	Climbing Shoes are so in right now	all the cool kids are buying them	www.shoes.roirevolution.com/ls123	http://www.shoes.roirevolution.com/lasportiva/ls123					Paused	Active	Active
				LA Sportiva ls123 - $135	You should buy our shoes	we have the best Climbing Shoes	www.shoes.roirevolution.com/ls123	http://www.shoes.roirevolution.com/lasportiva/ls123					Paused	Active	Active
									la sportiva	Exact	2.25	0	Paused	Active	Active
									la sportiva climbing shoes	Phrase	2.75	0	Paused	Active	Active
									ls123	Exact	2.5	0	Paused	Active	Active
									la sportiva	Phrase	2.25	0	Paused	Active	Active
									 +la +sportiva +climbing +shoes	Broad	2.75	0	Paused	Active	Active
									 +ls123	Broad	2.5	0	Paused	Active	Active
									la sportiva climbing shoes	Exact	2.75	0	Paused	Active	Active
									la sportiva ls123	Phrase	2.25	0	Paused	Active	Active
									la sportiva ls123	Exact	2.25	0	Paused	Active	Active
									climbing shoes	Exact	2.5	0	Paused	Active	Active
									climbing shoes	Phrase	2.5	0	Paused	Active	Active
									 +climbing +shoes	Broad	2.5	0	Paused	Active	Active
									 +la +sportiva	Broad	2.25	0	Paused	Active	Active
									ls123	Phrase	2.5	0	Paused	Active	Active
									 +la +sportiva +ls123	Broad	2.25	0	Paused	Active	Active
		LA Sportiva ls456 - $146	1.75										Paused	Active
				LA Sportiva ls456 - $146	Climbing Shoes are so in right now	all the cool kids are buying them	www.shoes.roirevolution.com/ls456	http://www.shoes.roirevolution.com/lasportiva/ls456					Paused	Active	Active
				LA Sportiva ls456 - $146	You should buy our shoes	we have the best Climbing Shoes	www.shoes.roirevolution.com/ls456	http://www.shoes.roirevolution.com/lasportiva/ls456					Paused	Active	Active
									la sportiva	Exact	2.25	0	Paused	Active	Active
									la sportiva climbing shoes	Exact	2.75	0	Paused	Active	Active
									 +la +sportiva +ls456	Broad	2	0	Paused	Active	Active
									 +ls456	Broad	2	0	Paused	Active	Active
									la sportiva ls456	Phrase	2	0	Paused	Active	Active
									la sportiva	Phrase	2.25	0	Paused	Active	Active
									 +la +sportiva +climbing +shoes	Broad	2.75	0	Paused	Active	Active
									ls456	Phrase	2	0	Paused	Active	Active
									la sportiva ls456	Exact	2	0	Paused	Active	Active
									ls456	Exact	2	0	Paused	Active	Active
									 +la +sportiva	Broad	2.25	0	Paused	Active	Active
									climbing shoes	Exact	2.5	0	Paused	Active	Active
									climbing shoes	Phrase	2.5	0	Paused	Active	Active
									la sportiva climbing shoes	Phrase	2.75	0	Paused	Active	Active
									 +climbing +shoes	Broad	2.5	0	Paused	Active	Active
		Five TEN ft123 - $90	1.08										Paused	Active
				Five TEN ft123 - $90	Climbing Shoes are so in right now	all the cool kids are buying them	www.shoes.roirevolution.com/ft123	http://www.shoes.roirevolution.com/fiveten/ft123					Paused	Active	Active
				Five TEN ft123 - $90	You should buy our shoes	we have the best Climbing Shoes	www.shoes.roirevolution.com/ft123	http://www.shoes.roirevolution.com/fiveten/ft123					Paused	Active	Active
									five ten	Exact	4.25	0	Paused	Active	Active
									climbing shoes	Phrase	2.5	0	Paused	Active	Active
									 +ft123	Broad	2.25	0	Paused	Active	Active
									five ten ft123	Phrase	3.75	0	Paused	Active	Active
									climbing shoes	Exact	2.5	0	Paused	Active	Active
									five ten climbing shoes	Phrase	4.25	0	Paused	Active	Active
									 +climbing +shoes	Broad	2.5	0	Paused	Active	Active
									ft123	Exact	2.25	0	Paused	Active	Active
									 +five +ten +climbing +shoes	Broad	4.25	0	Paused	Active	Active
									five ten	Phrase	4.25	0	Paused	Active	Active
									five ten climbing shoes	Exact	4.25	0	Paused	Active	Active
									ft123	Phrase	2.25	0	Paused	Active	Active
									 +five +ten	Broad	4.25	0	Paused	Active	Active
									 +five +ten +ft123	Broad	3.75	0	Paused	Active	Active
									five ten ft123	Exact	3.75	0	Paused	Active	Active
													Paused		Active
[Challenge] Nike - Brand	20												Paused
		Nike nk123 - $130	1.56										Paused	Active
				Nike nk123 - $130	All the cool kids are buying these	so you should too	www.shoes.roirevolution.com/nk123	http://www.shoes.roirevolution.com/nike/nk123					Paused	Active	Active
				Nike nk123 - $130	You should buy our shoes	we are the best option	www.shoes.roirevolution.com/nk123	http://www.shoes.roirevolution.com/nike/nk123					Paused	Active	Active
									nk123	Exact	2.25	0	Paused	Active	Active
									nk123	Phrase	2.25	0	Paused	Active	Active
									shoes	Exact	2	0	Paused	Active	Active
									nike	Exact	2	0	Paused	Active	Active
									nike shoes	Exact	2.5	0	Paused	Active	Active
									nike	Phrase	2	0	Paused	Active	Active
									 +shoes	Broad	2.25	0	Paused	Active	Active
									 +nike	Broad	2.25	0	Paused	Active	Active
									 +nk123	Broad	2.25	0	Paused	Active	Active
									 +nike +shoes	Broad	2.75	0	Paused	Active	Active
									 +nike +nk123	Broad	2.25	0	Paused	Active	Active
									nike nk123	Phrase	2.25	0	Paused	Active	Active
									nike nk123	Exact	2.25	0	Paused	Active	Active
									nike shoes	Phrase	2.5	0	Paused	Active	Active
									shoes	Phrase	2	0	Paused	Active	Active
		Nike nk456 - $90	1.08										Paused	Active
				Nike nk456 - $90	All the cool kids are buying these	so you should too	www.shoes.roirevolution.com/nk456	http://www.shoes.roirevolution.com/nike/nk456					Paused	Active	Active
				Nike nk456 - $90	You should buy our shoes	we are the best option	www.shoes.roirevolution.com/nk456	http://www.shoes.roirevolution.com/nike/nk456					Paused	Active	Active
									shoes	Exact	2	0	Paused	Active	Active
									shoes	Phrase	2	0	Paused	Active	Active
									 +shoes	Broad	2.25	0	Paused	Active	Active
									 +nike +nk456	Broad	2.25	0	Paused	Active	Active
									 +nk456	Broad	2.25	0	Paused	Active	Active
									nike nk456	Phrase	2.25	0	Paused	Active	Active
									nike shoes	Exact	2.5	0	Paused	Active	Active
									nike	Phrase	2	0	Paused	Active	Active
									nk456	Phrase	2.25	0	Paused	Active	Active
									nike nk456	Exact	2.25	0	Paused	Active	Active
									nk456	Exact	2.25	0	Paused	Active	Active
									nike	Exact	2	0	Paused	Active	Active
									 +nike	Broad	2.25	0	Paused	Active	Active
									 +nike +shoes	Broad	2.75	0	Paused	Active	Active
									nike shoes	Phrase	2.5	0	Paused	Active	Active
		Nike nk789 - $79	0.95										Paused	Active
				Nike nk789 - $79	All the cool kids are buying these	so you should too	www.shoes.roirevolution.com/nk789	http://www.shoes.roirevolution.com/nike/nk789					Paused	Active	Active
				Nike nk789 - $79	You should buy our shoes	we are the best option	www.shoes.roirevolution.com/nk789	http://www.shoes.roirevolution.com/nike/nk789					Paused	Active	Active
									nike shoes	Exact	2.5	0	Paused	Active	Active
									 +shoes	Broad	2.25	0	Paused	Active	Active
									 +nike +nk789	Broad	2.25	0	Paused	Active	Active
									 +nk789	Broad	2.25	0	Paused	Active	Active
									nk789	Phrase	2.25	0	Paused	Active	Active
									shoes	Exact	2	0	Paused	Active	Active
									nike	Exact	2	0	Paused	Active	Active
									 +nike	Broad	2.25	0	Paused	Active	Active
									nike nk789	Phrase	2.25	0	Paused	Active	Active
									nk789	Exact	2.25	0	Paused	Active	Active
									shoes	Phrase	2	0	Paused	Active	Active
									nike	Phrase	2	0	Paused	Active	Active
									nike shoes	Phrase	2.5	0	Paused	Active	Active
									 +nike +shoes	Broad	2.75	0	Paused	Active	Active
									nike nk789	Exact	2.25	0	Paused	Active	Active
													Paused		Active
[Challenge] Adidas - Brand	20												Paused
		Adidas ad456 - $79	0.95										Paused	Active
				Adidas ad456 - $79	All the cool kids are buying these	so you should too	www.shoes.roirevolution.com/ad456	http://www.shoes.roirevolution.com/adidas/ad456					Paused	Active	Active
				Adidas ad456 - $79	You should buy our shoes	we are the best option	www.shoes.roirevolution.com/ad456	http://www.shoes.roirevolution.com/adidas/ad456					Paused	Active	Active
									adidas	Phrase	2.25	0	Paused	Active	Active
									shoes	Exact	2	0	Paused	Active	Active
									ad456	Phrase	2.25	0	Paused	Active	Active
									adidas ad456	Exact	2.75	0	Paused	Active	Active
									adidas shoes	Exact	3	0	Paused	Active	Active
									 +adidas +ad456	Broad	2.75	0	Paused	Active	Active
									adidas	Exact	2.25	0	Paused	Active	Active
									shoes	Phrase	2	0	Paused	Active	Active
									adidas shoes	Phrase	3	0	Paused	Active	Active
									 +shoes	Broad	2.25	0	Paused	Active	Active
									 +adidas	Broad	2.5	0	Paused	Active	Active
									 +adidas +shoes	Broad	3.25	0	Paused	Active	Active
									ad456	Exact	2.25	0	Paused	Active	Active
									 +ad456	Broad	2.25	0	Paused	Active	Active
									adidas ad456	Phrase	2.75	0	Paused	Active	Active
		Adidas ad123 - $69	0.83										Paused	Active
				Adidas ad123 - $69	All the cool kids are buying these	so you should too	www.shoes.roirevolution.com/ad123	http://www.shoes.roirevolution.com/adidas/ad123					Paused	Active	Active
				Adidas ad123 - $69	You should buy our shoes	we are the best option	www.shoes.roirevolution.com/ad123	http://www.shoes.roirevolution.com/adidas/ad123					Paused	Active	Active
									adidas shoes	Exact	3	0	Paused	Active	Active
									shoes	Phrase	2	0	Paused	Active	Active
									adidas	Phrase	2.25	0	Paused	Active	Active
									ad123	Exact	2.25	0	Paused	Active	Active
									ad123	Phrase	2.25	0	Paused	Active	Active
									shoes	Exact	2	0	Paused	Active	Active
									 +shoes	Broad	2.25	0	Paused	Active	Active
									 +ad123	Broad	2.25	0	Paused	Active	Active
									 +adidas +ad123	Broad	2.75	0	Paused	Active	Active
									adidas	Exact	2.25	0	Paused	Active	Active
									 +adidas	Broad	2.5	0	Paused	Active	Active
									 +adidas +shoes	Broad	3.25	0	Paused	Active	Active
									adidas ad123	Exact	2.75	0	Paused	Active	Active
									adidas shoes	Phrase	3	0	Paused	Active	Active
									adidas ad123	Phrase	2.75	0	Paused	Active	Active
		Adidas ad789 - $100	1.2										Paused	Active
				Adidas ad789 - $100	All the cool kids are buying these	so you should too	www.shoes.roirevolution.com/ad789	http://www.shoes.roirevolution.com/adidas/ad789					Paused	Active	Active
				Adidas ad789 - $100	You should buy our shoes	we are the best option	www.shoes.roirevolution.com/ad789	http://www.shoes.roirevolution.com/adidas/ad789					Paused	Active	Active
									adidas shoes	Phrase	3	0	Paused	Active	Active
									 +shoes	Broad	2.25	0	Paused	Active	Active
									ad789	Exact	2.25	0	Paused	Active	Active
									 +ad789	Broad	2.25	0	Paused	Active	Active
									 +adidas +shoes	Broad	3.25	0	Paused	Active	Active
									ad789	Phrase	2.25	0	Paused	Active	Active
									adidas ad789	Exact	2.75	0	Paused	Active	Active
									shoes	Exact	2	0	Paused	Active	Active
									shoes	Phrase	2	0	Paused	Active	Active
									adidas	Phrase	2.25	0	Paused	Active	Active
									 +adidas +ad789	Broad	2.75	0	Paused	Active	Active
									adidas ad789	Phrase	2.75	0	Paused	Active	Active
									adidas shoes	Exact	3	0	Paused	Active	Active
									adidas	Exact	2.25	0	Paused	Active	Active
									 +adidas	Broad	2.5	0	Paused	Active	Active
													Paused		Active
[Challenge] Five TEN - Brand	20												Paused
		Five TEN ft123 - $90	1.08										Paused	Active
				Five TEN ft123 - $90	All the cool kids are buying these	so you should too	www.shoes.roirevolution.com/ft123	http://www.shoes.roirevolution.com/fiveten/ft123					Paused	Active	Active
				Five TEN ft123 - $90	You should buy our shoes	we are the best option	www.shoes.roirevolution.com/ft123	http://www.shoes.roirevolution.com/fiveten/ft123					Paused	Active	Active
									shoes	Exact	2	0	Paused	Active	Active
									five ten shoes	Exact	4.25	0	Paused	Active	Active
									 +shoes	Broad	2.25	0	Paused	Active	Active
									 +five +ten	Broad	4.25	0	Paused	Active	Active
									 +ft123	Broad	2.25	0	Paused	Active	Active
									five ten ft123	Exact	3.75	0	Paused	Active	Active
									shoes	Phrase	2	0	Paused	Active	Active
									five ten shoes	Phrase	4.25	0	Paused	Active	Active
									ft123	Exact	2.25	0	Paused	Active	Active
									five ten ft123	Phrase	3.75	0	Paused	Active	Active
									five ten	Phrase	4.25	0	Paused	Active	Active
									ft123	Phrase	2.25	0	Paused	Active	Active
									five ten	Exact	4.25	0	Paused	Active	Active
									 +five +ten +shoes	Broad	4.25	0	Paused	Active	Active
									 +five +ten +ft123	Broad	3.75	0	Paused	Active	Active
		Five TEN ft456 - $130	1.56										Paused	Active
				Five TEN ft456 - $130	All the cool kids are buying these	so you should too	www.shoes.roirevolution.com/ft456	http://www.shoes.roirevolution.com/fiveten/ft456					Paused	Active	Active
				Five TEN ft456 - $130	You should buy our shoes	we are the best option	www.shoes.roirevolution.com/ft456	http://www.shoes.roirevolution.com/fiveten/ft456					Paused	Active	Active
									five ten shoes	Exact	4.25	0	Paused	Active	Active
									 +five +ten +shoes	Broad	4.25	0	Paused	Active	Active
									 +ft456	Broad	2.25	0	Paused	Active	Active
									ft456	Phrase	2.25	0	Paused	Active	Active
									five ten	Exact	4.25	0	Paused	Active	Active
									shoes	Exact	2	0	Paused	Active	Active
									shoes	Phrase	2	0	Paused	Active	Active
									five ten shoes	Phrase	4.25	0	Paused	Active	Active
									 +shoes	Broad	2.25	0	Paused	Active	Active
									five ten ft456	Phrase	3.75	0	Paused	Active	Active
									 +five +ten	Broad	4.25	0	Paused	Active	Active
									 +five +ten +ft456	Broad	3.75	0	Paused	Active	Active
									five ten	Phrase	4.25	0	Paused	Active	Active
									ft456	Exact	2.25	0	Paused	Active	Active
									five ten ft456	Exact	3.75	0	Paused	Active	Active
													Paused		Active
[Challenge] LA Sportiva - Brand	20												Paused
		LA Sportiva ls123 - $135	1.62										Paused	Active
				LA Sportiva ls123 - $135	All the cool kids are buying these	so you should too	www.shoes.roirevolution.com/ls123	http://www.shoes.roirevolution.com/lasportiva/ls123					Paused	Active	Active
				LA Sportiva ls123 - $135	You should buy our shoes	we are the best option	www.shoes.roirevolution.com/ls123	http://www.shoes.roirevolution.com/lasportiva/ls123					Paused	Active	Active
									shoes	Phrase	2	0	Paused	Active	Active
									la sportiva shoes	Phrase	2.5	0	Paused	Active	Active
									 +shoes	Broad	2.25	0	Paused	Active	Active
									 +ls123	Broad	2.5	0	Paused	Active	Active
									shoes	Exact	2	0	Paused	Active	Active
									la sportiva shoes	Exact	2.5	0	Paused	Active	Active
									la sportiva	Exact	2.25	0	Paused	Active	Active
									 +la +sportiva	Broad	2.25	0	Paused	Active	Active
									ls123	Exact	2.5	0	Paused	Active	Active
									la sportiva ls123	Phrase	2.25	0	Paused	Active	Active
									 +la +sportiva +shoes	Broad	2.5	0	Paused	Active	Active
									ls123	Phrase	2.5	0	Paused	Active	Active
									la sportiva	Phrase	2.25	0	Paused	Active	Active
									 +la +sportiva +ls123	Broad	2.25	0	Paused	Active	Active
									la sportiva ls123	Exact	2.25	0	Paused	Active	Active
		LA Sportiva ls456 - $146	1.75										Paused	Active
				LA Sportiva ls456 - $146	You should buy our shoes	we are the best option	www.shoes.roirevolution.com/ls456	http://www.shoes.roirevolution.com/lasportiva/ls456					Paused	Active	Active
				LA Sportiva ls456 - $146	All the cool kids are buying these	so you should too	www.shoes.roirevolution.com/ls456	http://www.shoes.roirevolution.com/lasportiva/ls456					Paused	Active	Active
									shoes	Phrase	2	0	Paused	Active	Active
									la sportiva	Phrase	2.25	0	Paused	Active	Active
									la sportiva shoes	Phrase	2.5	0	Paused	Active	Active
									 +la +sportiva	Broad	2.25	0	Paused	Active	Active
									la sportiva ls456	Exact	2	0	Paused	Active	Active
									shoes	Exact	2	0	Paused	Active	Active
									 +shoes	Broad	2.25	0	Paused	Active	Active
									 +la +sportiva +shoes	Broad	2.5	0	Paused	Active	Active
									la sportiva shoes	Exact	2.5	0	Paused	Active	Active
									 +la +sportiva +ls456	Broad	2	0	Paused	Active	Active
									 +ls456	Broad	2	0	Paused	Active	Active
									la sportiva ls456	Phrase	2	0	Paused	Active	Active
									ls456	Phrase	2	0	Paused	Active	Active
									ls456	Exact	2	0	Paused	Active	Active
									la sportiva	Exact	2.25	0	Paused	Active	Active
													Paused		Active
